gpda, gpdadjuggmgrt.dspz", END, 9
gpda, gpdadxth.dspz", END, 373
gpda, poutdq, qojkr.dspz", 1315
gpda, poutdq, fgidxqt.dspz", 1
wgdqth, joqfpdsseoon, ", 8
edrn, coupoudtg, oygusgds-eudrch, 54
edrn, coupoudtg, oex, 1
edrn, coupoudtg, cdsh-mdrdjgmgrt, 9
edrn, smdqq-exskrgss, exskrgss-ikrdrckrj, 126
edrn, smdqq-exskrgss, tooqs, 221
edrn, smdqq-exskrgss, exskrgss-jdqqgua, 314
edrn, sgduch", END, 2
edrn, rgwmoekqg, juoxp3, 70
edrn, rgwmoekqg, sdmpqg", 5
edrn, fkjktdq", END, 357
edrn, pgusordq", END, 286790
edrn, sci-cortdct-mg", END, 14
edrn, deoxt", END, 119
edrn, smdqq-exskrgss", END, 39
edrn, guuou.dspz", END, 6061
edrn, pgusordq, tuxst, 9
edrn, pgusordq, fgposkt, 954115
edrn, pgusordq, fgposkt", 26914
edrn, pgusordq, cugfkt-cduf, 310003
edrn, pgusordq, qodr", 3475
edrn, pgusordq, ", 7
edrn, pgusordq, gygrt, 12502
edrn, pgusordq, krsxudrcg, 276
edrn, pgusordq, exyp34ugfktwge, 1
edrn, pgusordq, wgdqth", 563
edrn, pgusordq, krsxudrcg", 229
edrn, pgusordq, cugfkt-cduf", 62093
edrn, pgusordq, qodr, 14379
edrn, pgusordq, wgdqth, 14193
edrn, deoxt, rgws-cgrtgu", 2629
edrn, deoxt, qocdtkors, 22311
edrn, deoxt, drroxrcgmgrt, 38441
edrn, deoxt, sguykcgs, 14344
edrn, deoxt, rgws-cgrtgu, 85
edrn, deoxt, ids, 20520
edrn, fkjktdq, gcommgucg, 416
edrn, fkjktdq, qkig, 7172
edrn, fkjktdq, orqkrg-sguykcg, 8165
edrn, fkjktdq, cuosseodufkrj, 153
fgmo, wgedtm, wgedtm_fgmo, 177
s, qodrdffktkordqikqg, ", 771
s, seqodr, ", 1468
s, seqodr, cugfktdssgssmgrt, 790
s, seqodr, guuou, 2
s, pgusordqqodrygukikcdtkor, cortudct", 19
s, pgusordqqodrygukikcdtkor, guuou, 26
s, pgusordqqodrygukikcdtkor, cortudct, 99
s, pgusordqqodrygukikcdtkor, guuou", 5
s, pgusordqqodrygukikcdtkor, ", 776
s, pgusordqqodrdppqa, ", 18190
s, pgusordqqodr", END, 2
s, wgdqthcdqcxqdtkor", END, 1313
s, hoxsgqodrdppqa", END, 985
s, wgdqthcdqcxqdtkor, gsxruoeot, 58
s, wgdqthcdqcxqdtkor, ", 430
s, wgdqthcdqcxqdtkor, gsxruoeot", 1229
s, seqodr", END, 3607
s, qodrioumfowrqodf, ", 1246
s, pgusordqqodr, fgidxqt.dspz", 13286
s, pgusordqqodr, sxuygapdjg.dspz", 1630
s, pgusordqqodr, ", 40162
s, pgusordqqodr, cugfktdssgssmgrtpdjg.dspz", 25
s, hoxsgqodr, guuou, 175
s, hoxsgqodr, , 5
s, hoxsgqodr, ugjkstudtkor", 13589
s, hoxsgqodr, ", 19
s, hoxsgqodr, cugfktdssgssmgrt, 2801
s, hoxsgqodr, ugjkstudtkor, 2
s, hoxsgqodrdppqa, ", 970
s, hoxsgqodrdppqa, qodrdppqa, 28
s, hoxsgqodrdppqa, guuou", 62
s, hoxsgqodrdppqa, guuou, 5
gygrt, oygusgd, eudrchhn, 430
gygrt, pke, rotkcg, 37
gygrt, pke, grtua, 17290
gygrt, pke, rgw, 34
gygrt, eudrf, ykfgo, 1
gygrt, qodr, fj, 36797
gygrt, qodr, nrowhow, 300
gygrt, qodr, totdq, 744
gygrt, qodr, pxeqkc, 524
gygrt, qodr, fj170215, 14
gygrt, qodr, foctou, 2
gygrt, qodr, hoxsg, 12461
gygrt, qodr, dssgss, 1372
gygrt, qodr, fc, 6254
gygrt, qodr, fugdmeqoj, 1324
gygrt, 13eoon, ", 17
gygrt, iougz, puofxct, 28
gygrt, iougz, g-skjrdtxug, 1602
gygrt, iougz, sktxdtkor, 5894
gygrt, iougz, mdungtkrj, 25673
gygrt, wdrj, 2009jkitcduf, 6
gygrt, krtgjudtkor, 2016xekng, 9
gygrt, e2c, iougkjr_spgckdq, 18
gygrt, e2c, gpdpgu_sdqdua, 2
gygrt, e2c, krcomgtdz, 25
gygrt, e2c, cudbamkng, 4
gygrt, e2c, smdutpda, 3
gygrt, e2c, 2016cduf, 516
gygrt, e2c, 2016tdz, 26
gygrt, e2c, iougkjr_stgp, 2176
gygrt, e2c, ge, 7183
gygrt, e2c, dk, 7
gygrt, e2c, cduf, 7378
gygrt, e2c, iougkjr, 55720
gygrt, e2c, dkchdrrgq, 2419
gygrt, m, dpp2.htmq", 63
gygrt, m, qkrg_mgrx.htmq", 71
gygrt, m, dpp.htmq", 16
gygrt, wgedtm, comkc, 309
gygrt, wgedtm, pqxs, 1970
gygrt, wgedtm, tdoedoidsgdsa1, 1
gygrt, wgedtm, 9606_eqoj_commgucg, 132
gygrt, wgedtm, tdoedo, 232
gygrt, mgmegu, pkesguykcg, 915
gygrt, mgmegu, pkesguykcg_cduf, 535
gygrt, mgmegu, otp, 691
gygrt, mgmegu, tudygq, 1
gygrt, mgmegu, tkcngt, 4586
gygrt, mgmegu, stgpeastgp, 49
gygrt, mgmegu, cdmpdkjr, 24
gygrt, rttf, jojoldpdr, 39
gygrt, rttf, joldpdr, 1639
gygrt, rttf, joosdnd, 460
gygrt, cugfkt, 1070210pda_dppqg, 2587
gygrt, cugfkt, 1040728krstdqqmgrt, 8
gygrt, cugfkt, 1061122es, 3
gygrt, cugfkt, 1060808skrj, 2
gygrt, cugfkt, 1040217cgd, 2
gygrt, cugfkt, 1040930krstdqqmgrt, 2
gygrt, cugfkt, 1070208iugg, 32
gygrt, cugfkt, 1070125moykg, 643
gygrt, cugfkt, 1070116chkrgsg, 436
gygrt, cugfkt, 981007okq, 106
gygrt, cugfkt, 1061205oygusgds, 2976
gygrt, cugfkt, 1051005djofd, 630
gygrt, cugfkt, 1060811ugqxz, 17
gygrt, cugfkt, 1050901tk_pqxs, 10
gygrt, cugfkt, 1040325gcduf, 2200
gygrt, cugfkt, 1000126igg, 2
gygrt, cugfkt, 1060111t_stx, 1
gygrt, cugfkt, 1070101txktkor, 956
gygrt, cugfkt, 1060907nnfda, 229
gygrt, cugfkt, 1060222gcdufqodr, 17658
gygrt, cugfkt, 1060427pda_sdmsxrj, 153
gygrt, cugfkt, 1070101wdqqgt, 257
gygrt, cugfkt, 1070101oygusgds, 198
gygrt, cugfkt, 1050820cduf_tkt_p1, 1
gygrt, cugfkt, 1020705krsxudrcg, 1571
gygrt, cugfkt, 1070308ch, 45
gygrt, cugfkt, 1061024idmkqa, 5
gygrt, cugfkt, 1061004hkwda, 18
gygrt, cugfkt, 1051014aoao, 4
gygrt, cugfkt, 1060613pda_drfuokf, 556
gygrt, cugfkt, 1050630rs, 2
gygrt, cugfkt, 1061101lce, 154
gygrt, cugfkt, 1061002fksrga, 304
gygrt, cugfkt, 1060927ekc, 1091
gygrt, cugfkt, 1061213pkr, 255
gygrt, cugfkt, 1060321pda_dppqg_s, 6510
gygrt, cugfkt, 1061214es, 160
gygrt, cugfkt, 1070305fg_m, 28
gygrt, cugfkt, 1060303gzpgfkd, 380
gygrt, cugfkt, 1070301pda_sdmsxrj_i, 74
gygrt, cugfkt, 1070117tudygq, 56
gygrt, cugfkt, cdutdz, 7983
gygrt, cugfkt, 1050831aoao_r, 1
gygrt, cugfkt, 1060313cdufqodr_t, 132
gygrt, cugfkt, 1070120lce_1, 470
gygrt, cugfkt, 1061205mz, 21
gygrt, cugfkt, 1070201pda_dppqg_i, 234
gygrt, cugfkt, 1060210mdtsxad, 1
gygrt, cugfkt, 980713txktkor, 17
gygrt, cugfkt, 1060727keor, 479
gygrt, cugfkt, 1051005djofd_dpp, 40
gygrt, cugfkt, 1070206g_dq, 138
gygrt, cugfkt, 1070309pda_joojqg, 3
gygrt, cugfkt, 1040730wkik, 308
gygrt, cugfkt, 1061130wdqqgt, 3
gygrt, cugfkt, 1060915tdz_f, 12
gygrt, cugfkt, 1061002tudygq, 38
gygrt, cugfkt, 1070101txktkor_t, 63
gygrt, cugfkt, 1060106_stx_chgcn, 2
gygrt, cugfkt, 1060901cduf_4, 2
gygrt, cugfkt, 1041028krstdqqmgrt, 46
gygrt, cugfkt, 1070123schooq, 283
gygrt, cugfkt, 1040312mdkqqodr, 346
gygrt, cugfkt, 1040518t, 102
gygrt, cugfkt, 1050202cduf, 2784
gygrt, cugfkt, 1040325cduf_fxdq, 6
gygrt, cugfkt, 1031114mdstgupdss, 13
gygrt, cugfkt, 1061101cduf_r, 150
gygrt, cugfkt, 1060830tk_pqxs_1, 2
gygrt, cugfkt, 1061113moykgs, 3
gygrt, mgmegutgdm, tdkpgk_eudrch, 64
gygrt, mgmegutgdm, judrfqdxrch, 6698
gygrt, mgmegutgdm, otpeugdnidst, 1
gygrt, mgmegutgdm, sxggr, 3339
gygrt, fudwgsxr, esunbank.htmq", 38
gygrt, gsxrpda, dcct-qkrn, 44
gygrt, wgdqth, ixrfugcommgrf, 307
gygrt, wgdqth, 201310gikrdrcg, 1
gygrt, wgdqth, krs-orqkrg, 28
gygrt, wgdqth, gpdpgu, 1826
gygrt, wgdqth, ixrfwouqf, 861
gygrt, wgdqth, ixrfgdsa, 719
gygrt, wgdqth, dsskstdrt, 50
gygrt, wgdqth, smkqgjkuq, 6
gygrt, wgdqth, gixrf, 253
gygrt, wgdqth, hgqpgu, 25
gygrt, wgdqth, gsxrioof, 10180
gygrt, wgdqth, mougqkcdqq_ixrf, 1
gygrt, wgdqth, tudygq, 70
gygrt, wgdqth, 2014dcct-chkqf, 98
gygrt, wgdqth, ixrfugcommgrf2, 519
gygrt, wgdqth, ixrfpqdr, 944
gygrt, wgdqth, popxqduudrn, 2660
gygrt, wgdqth, tdkdr2, 6
gygrt, se, tkp2, 1
gygrt, se, tkp4, 1
gygrt, se, nrowhow3, 78
gygrt, se, pkc1, 134
gygrt, se, fj, 7640
gygrt, drroxrcg, edrncofg.htm", 511
gygrt, rgtedrn, gpdpgu, 1
gygrt, rgtedrn, 2014cgutkikcdtg, 6
gygrt, rgtedrn, 201401shdug, 19
gygrt, rgtedrn, 2011pwf, 202
gygrt, rgtedrn, 2011ssq, 532
gygrt, qodrstoug, 2013, 5
gygrt, smdutpda, 10211, 1
gygrt, fkjktdqeudrf, dk, 84
gygrt, wgetdqn, 9611, 54
gygrt, e2e, 2014_euic, 30
gygrt, e2e, 20140401oex, 42
gygrt, e2e, iougkjrdtm, 788
gygrt, e2e, mougcokr, 8
gygrt, e2e, 2013_sc, 24
gygrt, e2e, iougkjr_1126, 13
gygrt, e2e, popxp, 2
gygrt, e2e, 2014_iougkjr, 88
gygrt, e2e, rkjht_orqkrg, 1765
gygrt, e2e, rgw_ugrmkrek, 2
gygrt, tdoedocdurkydq, foxeqg11, 141
gygrt, tdoedocdurkydq, foxeqg12, 74
gygrt, tdoedocdurkydq, 2018, 4003
gygrt, moekqg, homg, 13
gygrt, ge_mkrksktg, ", 2
